{
	"variables": {
		"atlas_token": "",
		"atlas_version": "",
		"disk_size": "65536",
		"cpus": "1",
		"memory": "512",
		"headless": "",
		"virtualbox_guest_os_type": "RedHat_64",
		"vm_name": "centos67",
		"vmware_guest_os_type": "centos-64",
		"ssh_username": "vagrant",
		"ssh_password": "vagrant",
		"install_vagrant_key": "true",
		"docker": "true",
		"elixir": "true",
		"update": "true",
		"golang": "true",
		"version": "0.1.0"
	},
	"provisioners": [
		{
			"environment_vars": [
				"SSH_USERNAME={{user `ssh_username`}}",
				"SSH_PASSWORD={{user `ssh_password`}}",
				"UPDATE={{user `update`}}",
				"INSTALL_VAGRANT_KEY={{user `install_vagrant_key`}}",
				"DOCKER={{user `docker`}}",
				"ELIXIR={{user `docker`}}",
				"UPDATE={{user `update`}}",
				"GOLANG={{user `golang`}}"
			],
			"type": "shell",
			"execute_command": "echo 'vagrant' | {{.Vars}} sudo -E -S bash '{{.Path}}'",
			"scripts": [
				"fix_slow_dns.sh",
				"sshd.sh",
				"update.sh",
				"vagrant.sh",
				"virtualbox.sh",
				"vmware.sh",
				"addl_pkgs.sh",
				"golang.sh",
				"docker.sh",
				"elixir_erlang.sh",
				"motd.sh",
				"cleanup.sh"
			]
		}	
	],
	"builders": [
		{
			"type": "virtualbox-iso",
			"vm_name": "{{ user `vm_name` }}",
			"guest_os_type": "{{ user `virtualbox_guest_os_type` }}",
			"iso_checksum_type": "sha1",
			"iso_checksum": "4c6c65b5a70a1142dadb3c65238e9e97253c0d3a",
			"iso_url": "http://mirrors.sonic.net/centos/7.2.1511/isos/x86_64/CentOS-7-x86_64-DVD-1511.iso",
			"ssh_username": "{{ user `ssh_username` }}",
			"ssh_password": "{{ user `ssh_password` }}",
			"ssh_wait_timeout": "10000s",
			"headless": "{{ user `headless` }}",
			"http_directory": "http",
			"boot_command": ["<tab> text ks=http://{{ .HTTPIP }}:{{ .HTTPPort }}/ks.cfg<enter><wait>"],
			"shutdown_command": "echo 'vagrant' | sudo -S /sbin/halt -h -p",
			"disk_size": "{{ user `disk_size` }}",
			"guest_additions_path": "VBoxGuestAdditions_{{.Version}}.iso",
			"hard_drive_interface": "sata",
			"vboxmanage": [
				[
					"modifyvm", "{{.Name}}", "--memory", "{{ user `memory` }}"
				],
				[
					"modifyvm", "{{.Name}}", "--cpus", "{{ user `cpus` }}"
				]
			],
			"virtualbox_version_file": ".vbox_version"
		}
	],
	"post-processors": [
		[
			{
				"type": "vagrant",
				"keep_input_artifact": false
			},
			{
				"type": "atlas",
				"token": "{{ user `atlas_token` }}",
				"artifact": "nhalm/centos7",
				"artifact_type": "vagrant.box",
				"metadata": {
					"provider": "virtualbox",
					"version": "0.38.0"
				}
			}
		]
	]
}
